{
  "checksum": "7c978fb729a7813a1523f156fbdd023b",
  "root": "centipede@link-dev:./package.json",
  "node": {
    "string-helpers@1.0.0@d41d8cd9": {
      "id": "string-helpers@1.0.0@d41d8cd9",
      "name": "string-helpers",
      "version": "1.0.0",
      "source": {
        "type": "install",
        "source": [
          "archive:https://beta.packages.ligolang.org/-/api/string-helpers/-/string-helpers-1.0.0.tgz#sha1:e582cd23a0beee2369124bc9361617cabcfc9d5a"
        ]
      },
      "overrides": [],
      "dependencies": [],
      "devDependencies": []
    },
    "centipede@link-dev:./package.json": {
      "id": "centipede@link-dev:./package.json",
      "name": "centipede",
      "version": "link-dev:./package.json",
      "source": {
        "type": "link-dev",
        "path": ".",
        "manifest": "package.json"
      },
      "overrides": [],
      "dependencies": [ "string-helpers@1.0.0@d41d8cd9" ],
      "devDependencies": []
    }
  }
}